Chapter 8 The Movie Dataset | Using R & Neo4J
…
'MATCH (bacon:Person {name:"Kevin Bacon"})-[*1..4]-(hollywood) RETURN DISTINCT hollywood' %>%
  call_neo4j(con)

## $hollywood
## # A tibble: 135 x 5
##     born name          tagline                      title        released
##    <int> <chr>         <chr>                        <chr>           <int>
##  1  1941 Nora Ephron   <NA>                         <NA>               NA
##  2  1968 Parker Posey  <NA>                         <NA>               NA
##  3  1963 Greg Kinnear  <NA>                         <NA>               NA
##  4  1961 Meg Ryan      <NA>                         <NA>               NA
##  5  1967 Steve Zahn    <NA>                         <NA>               NA
##  6  1973 Dave Chappel… <NA>                         <NA>               NA
##  7    NA <NA>          At odds in life... in love … Youve Got M…     1998
##  8  1954 Madonna       <NA>                         <NA>               NA
##  9  1943 Penny Marsha… <NA>                         <NA>               NA
## 10  1962 Rosie ODonne… <NA>                         <NA>               NA
## # … with 125 more rows
## 
## attr(,"class")
## [1] "neo"  "list"
…
## # A tibble: 3 x 3
##   id    label     properties
##   <chr> <list>    <list>    
## 1 108   <chr [1]> <list [2]>
## 2 6     <chr [1]> <list [2]>
## 3 5     <chr [1]> <list [2]>

'MATCH (tom:Person {name:"Tom Hanks"})-[:ACTED_IN]->(m)<-[:ACTED_IN]-(coActors) RETURN coActors' %>%
  call_neo4j(con, type = "graph") %>%
  unnest_graph()

## $nodes
## # A tibble: 34 x 4
##    id    value   born name          
##    <chr> <chr>  <int> <chr>         
##  1 145   Person  1950 Ed Harris     
##  2 134   Person  1955 Gary Sinise   
##  3 19    Person  1958 Kevin Bacon   
##  4 146   Person  1955 Bill Paxton   
##  5 68    Person  1968 Parker Posey  
##  6 54    Person  1963 Greg Kinnear  
##  7 34    Person  1961 Meg Ryan      
##  8 70    Person  1967 Steve Zahn    
##  9 69    Person  1973 Dave Chappelle
## 10 163   Person  1954 Madonna       
## # … with 24 more rows
## 
## attr(,"class")
## [1] "neo"  "list"
…
