Chapter 4 Retrieve data from the API | Using R & Neo4J
…
unnest_relationships()

There is only one nested column in the relationship table, thus the function is quite straightforward :

'MATCH (people:Person)-[relatedTo]-(:Movie {title: "Cloud Atlas"}) RETURN people.name, Type(relatedTo), relatedTo' %>%
  call_neo4j(con, type = "graph") %>%
  extract_relationships() %>%
  unnest_relationships()

## # A tibble: 23 x 8
##    id    type     startNode endNode roles     value summary rating
##    <chr> <chr>    <chr>     <chr>   <list>    <lgl> <chr>    <int>
##  1 137   ACTED_IN 71        105     <chr [1]> NA    <NA>        NA
##  2 137   ACTED_IN 71        105     <chr [1]> NA    <NA>        NA
##  3 137   ACTED_IN 71        105     <chr [1]> NA    <NA>        NA
##  4 137   ACTED_IN 71        105     <chr [1]> NA    <NA>        NA
##  5 140   ACTED_IN 107       105     <chr [1]> NA    <NA>        NA
##  6 140   ACTED_IN 107       105     <chr [1]> NA    <NA>        NA
##  7 140   ACTED_IN 107       105     <chr [1]> NA    <NA>        NA
##  8 144   WROTE    109       105     <NULL>    NA    <NA>        NA
##  9 141   DIRECTED 108       105     <NULL>    NA    <NA>        NA
## 10 143   DIRECTED 6         105     <NULL>    NA    <NA>        NA
## # … with 13 more rows
…
##    <chr> <chr>  <int> <chr>          <chr>               <chr>        <int>
##  1 71    Person  1956 Tom Hanks      <NA>                <NA>            NA
##  2 105   Movie     NA <NA>           Everything is conn… Cloud At…     2012
##  3 107   Person  1949 Jim Broadbent  <NA>                <NA>            NA
##  4 109   Person  1969 David Mitchell <NA>                <NA>            NA
##  5 108   Person  1965 Tom Tykwer     <NA>                <NA>            NA
##  6 6     Person  1965 Lana Wachowski <NA>                <NA>            NA
##  7 110   Person  1961 Stefan Arndt   <NA>                <NA>            NA
##  8 169   Person    NA Jessica Thomp… <NA>                <NA>            NA
##  9 106   Person  1966 Halle Berry    <NA>                <NA>            NA
## 10 4     Person  1960 Hugo Weaving   <NA>                <NA>            NA
## 11 5     Person  1967 Lilly Wachows… <NA>                <NA>            NA
## 
## $relationships
## # A tibble: 23 x 8
##    id    type     startNode endNode roles     value summary rating
##    <chr> <chr>    <chr>     <chr>   <list>    <lgl> <chr>    <int>
##  1 137   ACTED_IN 71        105     <chr [1]> NA    <NA>        NA
##  2 137   ACTED_IN 71        105     <chr [1]> NA    <NA>        NA
##  3 137   ACTED_IN 71        105     <chr [1]> NA    <NA>        NA
##  4 137   ACTED_IN 71        105     <chr [1]> NA    <NA>        NA
##  5 140   ACTED_IN 107       105     <chr [1]> NA    <NA>        NA
##  6 140   ACTED_IN 107       105     <chr [1]> NA    <NA>        NA
##  7 140   ACTED_IN 107       105     <chr [1]> NA    <NA>        NA
##  8 144   WROTE    109       105     <NULL>    NA    <NA>        NA
##  9 141   DIRECTED 108       105     <NULL>    NA    <NA>        NA
## 10 143   DIRECTED 6         105     <NULL>    NA    <NA>        NA
## # … with 13 more rows
## 
## attr(,"class")
## [1] "neo"  "list"

4.2.1 Extraction

There are two convenient functions to extract nodes and relationships:

'MATCH (bacon:Person {name:"Kevin Bacon"})-[*1..4]-(hollywood) RETURN DISTINCT hollywood' %>%
  call_neo4j(con, type = "graph") %>% 
  extract_nodes()

## # A tibble: 135 x 3
##    id    label     properties
##    <chr> <list>    <list>    
##  1 72    <chr [1]> <list [2]>
##  2 68    <chr [1]> <list [2]>
##  3 54    <chr [1]> <list [2]>
##  4 34    <chr [1]> <list [2]>
##  5 70    <chr [1]> <list [2]>
##  6 69    <chr [1]> <list [2]>
##  7 67    <chr [1]> <list [3]>
##  8 163   <chr [1]> <list [2]>
##  9 166   <chr [1]> <list [2]>
## 10 77    <chr [1]> <list [2]>
## # … with 125 more rows
…
