Using R & Neo4J
…
# Create the query that will create the nodes and relationships
on_load_query <- 'MERGE (a:artist { name: csvLine.artist})
MERGE (al:album {name: csvLine.album_name})
MERGE (a) -[:has_recorded] -> (al)  
RETURN a AS artists, al AS albums;'
# Send the csv 
load_csv(url = "https://raw.githubusercontent.com/ThinkR-open/datasets/master/tracks.csv", 
         con = con, header = TRUE, periodic_commit = 50, 
         as = "csvLine", on_load = on_load_query)

## $artists
## # A tibble: 2,367 x 1
##    name           
##    <chr>          
##  1 Eminem         
##  2 Eurythmics     
##  3 Queen          
##  4 The Police     
##  5 A$AP Rocky     
##  6 Tears For Fears
##  7 Foals          
##  8 Bag Raiders    
##  9 Bright Eyes    
## 10 Bob Dylan      
## # … with 2,357 more rows
## 
## $albums
## # A tibble: 2,367 x 1
##    name                           
##    <chr>                          
##  1 Curtain Call (Deluxe)          
##  2 Sweet Dreams (Are Made Of This)
##  3 The Game (2011 Remaster)       
##  4 Synchronicity (Remastered)     
##  5 LONG.LIVE.A$AP (Deluxe Version)
##  6 Songs From The Big Chair       
##  7 Holy Fire                      
##  8 Bag Raiders (Deluxe)           
##  9 I'm Wide Awake, It's Morning   
## 10 Highway 61 Revisited           
## # … with 2,357 more rows
## 
## $stats
…
